{
  "pagination": {
    "last_visible_page": 2,
    "has_next_page": true,
    "current_page": 1,
    "items": {
      "count": 25,
      "total": 30,
      "per_page": 25
    }
  },
  "data": [
    {
      "mal_id": 20,
      "url": "https://myanimelist.net/anime/20/Naruto",
      "images": {
        "jpg": {
          "image_url": "https://cdn.myanimelist.net/images/anime/13/17405.jpg",
          "small_image_url": "https://cdn.myanimelist.net/images/anime/13/17405t.jpg",
          "large_image_url": "https://cdn.myanimelist.net/images/anime/13/17405l.jpg"
        },
        "webp": {
          "image_url": "https://cdn.myanimelist.net/images/anime/13/17405.webp",
          "small_image_url": "https://cdn.myanimelist.net/images/anime/13/17405t.webp",
          "large_image_url": "https://cdn.myanimelist.net/images/anime/13/17405l.webp"
        }
      },
      "trailer": {
        "youtube_id": null,
        "url": null,
        "embed_url": null,
        "images": {
          "image_url": null,
          "small_image_url": null,
          "medium_image_url": null,
          "large_image_url": null,
          "maximum_image_url": null
        }
      },
      "approved": true,
      "titles": [
        {
          "type": "Default",
          "title": "Naruto"
        },
        {
          "type": "Synonym",
          "title": "NARUTO"
        },
        {
          "type": "Japanese",
          "title": "ナルト"
        },
        {
          "type": "English",
          "title": "Naruto"
        }
      ],
      "title": "Naruto",
      "title_english": "Naruto",
      "title_japanese": "ナルト",
      "title_synonyms": [
        "NARUTO"
      ],
      "type": "TV",
      "source": "Manga",
      "episodes": 220,
      "status": "Finished Airing",
      "airing": false,
      "aired": {
        "from": "2002-10-03T00:00:00+00:00",
        "to": "2007-02-08T00:00:00+00:00",
        "prop": {
          "from": {
            "day": 3,
            "month": 10,
            "year": 2002
          },
          "to": {
            "day": 8,
            "month": 2,
            "year": 2007
          }
        },
        "string": "Oct 3, 2002 to Feb 8, 2007"
      },
      "duration": "23 min per ep",
      "rating": "PG-13 - Teens 13 or older",
      "score": 7.99,
      "scored_by": 1896642,
      "rank": 606,
      "popularity": 8,
      "members": 2736511,
      "favorites": 76799,
      "synopsis": "Moments prior to Naruto Uzumaki's birth",
      "background": "Naruto received numerous awards during its airing, including the \"Best Full-Length Animation Program Award\" in the Third UStv Awards and the 38th \"Best Animated Show\" in IGN's Top 100 Animated Series.",
      "season": "fall",
      "year": 2002,
      "broadcast": {
        "day": "Thursdays",
        "time": "19:30",
        "timezone": "Asia/Tokyo",
        "string": "Thursdays at 19:30 (JST)"
      },
      "producers": [
        {
          "mal_id": 16,
          "type": "anime",
          "name": "TV Tokyo",
          "url": "https://myanimelist.net/anime/producer/16/TV_Tokyo"
        },
        {
          "mal_id": 17,
          "type": "anime",
          "name": "Aniplex",
          "url": "https://myanimelist.net/anime/producer/17/Aniplex"
        },
        {
          "mal_id": 1365,
          "type": "anime",
          "name": "Shueisha",
          "url": "https://myanimelist.net/anime/producer/1365/Shueisha"
        }
      ],
      "licensors": [
        {
          "mal_id": 119,
          "type": "anime",
          "name": "VIZ Media",
          "url": "https://myanimelist.net/anime/producer/119/VIZ_Media"
        }
      ],
      "studios": [
        {
          "mal_id": 1,
          "type": "anime",
          "name": "Pierrot",
          "url": "https://myanimelist.net/anime/producer/1/Pierrot"
        }
      ],
      "genres": [
        {
          "mal_id": 1,
          "type": "anime",
          "name": "Action",
          "url": "https://myanimelist.net/anime/genre/1/Action"
        },
        {
          "mal_id": 2,
          "type": "anime",
          "name": "Adventure",
          "url": "https://myanimelist.net/anime/genre/2/Adventure"
        },
        {
          "mal_id": 10,
          "type": "anime",
          "name": "Fantasy",
          "url": "https://myanimelist.net/anime/genre/10/Fantasy"
        }
      ],
      "explicit_genres": [],
      "themes": [
        {
          "mal_id": 17,
          "type": "anime",
          "name": "Martial Arts",
          "url": "https://myanimelist.net/anime/genre/17/Martial_Arts"
        }
      ],
      "demographics": [
        {
          "mal_id": 27,
          "type": "anime",
          "name": "Shounen",
          "url": "https://myanimelist.net/anime/genre/27/Shounen"
        }
      ]
    },
    {
      "mal_id": 16870,
      "url": "https://myanimelist.net/anime/16870/The_Last__Naruto_the_Movie",
      "images": {
        "jpg": {
          "image_url": "https://cdn.myanimelist.net/images/anime/1491/134498.jpg",
          "small_image_url": "https://cdn.myanimelist.net/images/anime/1491/134498t.jpg",
          "large_image_url": "https://cdn.myanimelist.net/images/anime/1491/134498l.jpg"
        },
        "webp": {
          "image_url": "https://cdn.myanimelist.net/images/anime/1491/134498.webp",
          "small_image_url": "https://cdn.myanimelist.net/images/anime/1491/134498t.webp",
          "large_image_url": "https://cdn.myanimelist.net/images/anime/1491/134498l.webp"
        }
      },
      "trailer": {
        "youtube_id": "tA3yE4_t6SY",
        "url": "https://www.youtube.com/watch?v=tA3yE4_t6SY",
        "embed_url": "https://www.youtube.com/embed/tA3yE4_t6SY?enablejsapi=1&wmode=opaque&autoplay=1",
        "images": {
          "image_url": "https://img.youtube.com/vi/tA3yE4_t6SY/default.jpg",
          "small_image_url": "https://img.youtube.com/vi/tA3yE4_t6SY/sddefault.jpg",
          "medium_image_url": "https://img.youtube.com/vi/tA3yE4_t6SY/mqdefault.jpg",
          "large_image_url": "https://img.youtube.com/vi/tA3yE4_t6SY/hqdefault.jpg",
          "maximum_image_url": "https://img.youtube.com/vi/tA3yE4_t6SY/maxresdefault.jpg"
        }
      },
      "approved": true,
      "titles": [
        {
          "type": "Default",
          "title": "The Last: Naruto the Movie"
        },
        {
          "type": "Synonym",
          "title": "Naruto Movie 10: Naruto the Movie: The Last,Naruto: Shippuuden Movie 7 - The Last"
        },
        {
          "type": "Japanese",
          "title": "THE LAST NARUTO THE MOVIE"
        },
        {
          "type": "English",
          "title": "Naruto Shippuden the Movie 7: The Last"
        },
        {
          "type": "German",
          "title": "Naruto Film 7: The Last"
        },
        {
          "type": "Spanish",
          "title": "Naruto Película 7: The Last"
        },
        {
          "type": "French",
          "title": "Naruto Film 7: The Last"
        }
      ],
      "title": "The Last: Naruto the Movie",
      "title_english": "Naruto Shippuden the Movie 7: The Last",
      "title_japanese": "THE LAST NARUTO THE MOVIE",
      "title_synonyms": [
        "Naruto Movie 10: Naruto the Movie: The Last,Naruto: Shippuuden Movie 7 - The Last"
      ],
      "type": "Movie",
      "source": "Manga",
      "episodes": 1,
      "status": "Finished Airing",
      "airing": false,
      "aired": {
        "from": "2014-12-06T00:00:00+00:00",
        "to": null,
        "prop": {
          "from": {
            "day": 6,
            "month": 12,
            "year": 2014
          },
          "to": {
            "day": null,
            "month": null,
            "year": null
          }
        },
        "string": "Dec 6, 2014"
      },
      "duration": "1 hr 52 min",
      "rating": "PG-13 - Teens 13 or older",
      "score": 7.79,
      "scored_by": 388051,
      "rank": 953,
      "popularity": 350,
      "members": 581469,
      "favorites": 2122,
      "synopsis": "Two years have passed since the end of the Fourth Great Ninja War.",
      "background": "The events in the film The Last: Naruto the Movie take place chronologically between chapters 699 and 700 of the original manga. It is the tenth animated film in the Naruto series, and was made to commemorate the manga’s 15th anniversary.",
      "season": null,
      "year": null,
      "broadcast": {
        "day": null,
        "time": null,
        "timezone": null,
        "string": null
      },
      "producers": [
        {
          "mal_id": 16,
          "type": "anime",
          "name": "TV Tokyo",
          "url": "https://myanimelist.net/anime/producer/16/TV_Tokyo"
        },
        {
          "mal_id": 1365,
          "type": "anime",
          "name": "Shueisha",
          "url": "https://myanimelist.net/anime/producer/1365/Shueisha"
        }
      ],
      "licensors": [
        {
          "mal_id": 119,
          "type": "anime",
          "name": "VIZ Media",
          "url": "https://myanimelist.net/anime/producer/119/VIZ_Media"
        }
      ],
      "studios": [
        {
          "mal_id": 1,
          "type": "anime",
          "name": "Pierrot",
          "url": "https://myanimelist.net/anime/producer/1/Pierrot"
        }
      ],
      "genres": [
        {
          "mal_id": 1,
          "type": "anime",
          "name": "Action",
          "url": "https://myanimelist.net/anime/genre/1/Action"
        },
        {
          "mal_id": 2,
          "type": "anime",
          "name": "Adventure",
          "url": "https://myanimelist.net/anime/genre/2/Adventure"
        },
        {
          "mal_id": 10,
          "type": "anime",
          "name": "Fantasy",
          "url": "https://myanimelist.net/anime/genre/10/Fantasy"
        },
        {
          "mal_id": 22,
          "type": "anime",
          "name": "Romance",
          "url": "https://myanimelist.net/anime/genre/22/Romance"
        }
      ],
      "explicit_genres": [],
      "themes": [],
      "demographics": [
        {
          "mal_id": 27,
          "type": "anime",
          "name": "Shounen",
          "url": "https://myanimelist.net/anime/genre/27/Shounen"
        }
      ]
    }
  ]
}
